C:\Users\RENT\Desktop\Eclipse\students.database\src\main\java\students\database\StudentsConsoleInterface.java
C:\Users\RENT\Desktop\Eclipse\students.database\src\main\java\students\database\Student.java
C:\Users\RENT\Desktop\Eclipse\students.database\src\main\java\students\database\StudentDatabase.java
